{
  "type": "service_account",
  "project_id": "api-project-136831866541",
  "private_key_id": "9bc43719abc8d5c0ce8d14ce94f7d416005034ad",
  "private_key": "-----BEGIN PRIVATE KEY-----\nMIIEvgIBADANBgkqhkiG9w0BAQEFAASCBKgwggSkAgEAAoIBAQC1HYKbx1cx2ypI\njfXkdo7FQfUlRyARolLG7R7yQMCvelKowjNXGfirHjllJEE/ek5GcrFCdMzUJ8l8\n6MwxOmPDNNJMPzeN8vYlhLmW5dbsHOf4Q95czQmPOA84rWkUj353JsBVOV1eWOVN\nRf8F7PV/eqlR0JTrT/UYu/2yJ0+xiR/NjlqAeGMiP3TcZTykSETayFGmPiHQCWI1\nJJn6BTwrXJ493PNKHLXxpxffVfegyeTvgmJ6fpiFkMIP1gkmunq6dqbAwDHImaGa\nsLHJJadFvpUVniiUVdFq/zUsRqUUOQmGUW9R1sJ+f9NY3+ee2RBQ+Vv/wwQ3Q+mK\n1gLwMJq/AgMBAAECggEACNtxmLat7/U84yF2Jf8aSlFIcNNCoToj/DB6c/Rwt+Qu\niKw+oILXo16uBeE5A6ayj0Vqn8pgffuYIfCsk7e8Sz6ZDjuFNv7rxLfx74w7734W\nZhDDnhw03HksXWQ1oFjIIYGWpFRS2ZtVU2sZ5qtI8jwIbcTak4tsfBItfPnpLtBl\nsinTKiG5c6Xn+g7g00vJ2Ua1iBS3YB7Q2KGTjS/SYyeKRK2SCRivs5SB43+XEVXS\n3kkun3NWH5YVIydKEC+7ypKkNuB8iEW3GTI6Du7Zignj9Ux+l9kb8rDEMqdT5pCE\nlqQr/9tLdH0Wz7sfDWHEaFg4FAFIloZVqku8pd3GcQKBgQDzk/J6zODzFEkNWN8T\nAGsnK2sryL67wgqpQMRZZBGgLWtYALfAXHlhBNz5ZxWuqtt8OFDold5rzyCNFXHR\nsfBK47c4KpVwHj8NNGr1HF/15lKjiC+69FlbTcs+7N2Idvs3Sv7HXQX4tkIAP6rc\nH7b0RkIcDThNMFqkul3WTgOMSQKBgQC+WhOUn0/nHmNiUyGb7XWqf/QMKYTfo0Q3\ncPKRrZCZHkw37Hv3XjRSRI5BS3uWSSt/T8A4bLx8CO7Uyhze6p83PibOtwUF0XkP\n+Td/t6SBxqp8cLhSR79z+TO7L7aL45P+jLweunuyPH8PBOydjFO6lc7wX7PNpaEg\nV0RCjQ4exwKBgQDEjRoZ5cGP5Uqdrp0zpB7TWMH+btsaf5ZCxbSrvYhLjNsWBF5C\np1x64YW+62QfsleygW8of+cfb+CAeFGEOOYCSIbMl/BGrOGMMkQszlzQ/K6qr3Z0\nkkCY4MmlWVXajMhi8e1tyq7K56eSs82YGy9zJk6qfDB2eRJr4sdd604JoQKBgF06\nfNCT3myR45cqpBFckf65wGucgimOK0EEHqne2i1EO4xAVM7o4rNQRGQSdis7FwS5\nqKl6CC6vqVmqy80aGHTUCenAlcMtvx9lrhrtdLLi/GkKRBx4a3p/mSiay8tj4P4R\nK6nZJ/A51PkkLkdTjUabTMlJ9iRIdMwEMbhuoXXNAoGBANFBgPlwRaq+YbXIYKqL\nW6PXUmEXgWAnj7ZgwepNZCdxKCvdMDJcQ1pGhjdrQxAnSrd6yicbzyKAFB2NWPAV\n6pGG12Q3KeVOhMDpfZwF9sDdEBI+3iZOp3pfz7sXt5vnC7lHhjkN0o4HgaC9s8yo\n6uABhJg6cj5xzEkAn0fL2GVP\n-----END PRIVATE KEY-----\n",
  "client_email": "captoria@api-project-136831866541.iam.gserviceaccount.com",
  "client_id": "109272649603459830654",
  "auth_uri": "https://accounts.google.com/o/oauth2/auth",
  "token_uri": "https://accounts.google.com/o/oauth2/token",
  "auth_provider_x509_cert_url": "https://www.googleapis.com/oauth2/v1/certs",
  "client_x509_cert_url": "https://www.googleapis.com/robot/v1/metadata/x509/captoria%40api-project-136831866541.iam.gserviceaccount.com"
}
